M215_Proj_Draft
…
# 3-year survival probability
res3 <- cbind(S0[max(which(t <= 36))], S1[max(which(t <= 36))])
rownames(res3) <- c('Est. Surv.')
colnames(res3) <- c('Abnormal Conreacility', 'Normal Conreacility')
round(res3, 3)

##            Abnormal Conreacility Normal Conreacility
## Est. Surv.                 0.237               0.358

Time-Dependent Covariates (Section 9.2)

ec.data

## # A tibble: 131 x 13
##    survival alive ha.age    pe    fs  lvdd wm.index death fs.cat fs.cat.2
##       <dbl> <int>  <dbl> <int> <dbl> <dbl>    <dbl> <dbl>  <dbl> <chr>   
##  1       11     0     71     0 0.26   4.6      1        1      1 Nomal   
##  2       19     0     72     0 0.38   4.1      1.7      1      1 Nomal   
##  3       16     0     55     0 0.26   3.42     1        1      1 Nomal   
##  4       57     0     60     0 0.253  4.60     1.45     1      1 Nomal   
##  5       19     1     57     0 0.16   5.75     2.25     0      0 Abnormal
##  6       26     0     68     0 0.26   4.31     1        1      1 Nomal   
##  7       13     0     62     0 0.23   5.43     1.88     1      0 Abnormal
##  8       50     0     60     0 0.33   5.25     1        1      1 Nomal   
##  9       19     0     46     0 0.34   5.09     1.14     1      1 Nomal   
## 10       25     0     54     0 0.14   4.49     1.19     1      0 Abnormal
## # ... with 121 more rows, and 3 more variables: wmsi <dbl>,
## #   lvdd.cat <dbl>, age <dbl>
…
